<svg width="24" height="24" viewBox="0 0 24 24" fill="none" xmlns="http://www.w3.org/2000/svg">
<path d="M12 24C5.3835 24 0 18.6165 0 12C0 5.3835 5.3835 0 12 0C18.6165 0 24 5.3835 24 12C24 18.6165 18.6165 24 12 24ZM12 3C7.0365 3 3 7.0365 3 12C3 16.9635 7.0365 21 12 21C16.9635 21 21 16.9635 21 12C21 7.0365 16.9635 3 12 3ZM10.5 16.5C10.303 16.5002 10.1079 16.4615 9.9259 16.3861C9.74391 16.3106 9.57861 16.2 9.4395 16.0605L6.4395 13.0605C6.30023 12.9212 6.18976 12.7559 6.11439 12.5739C6.03902 12.392 6.00023 12.197 6.00023 12C6.00023 11.6022 6.15824 11.2208 6.4395 10.9395C6.72076 10.6582 7.10224 10.5002 7.5 10.5002C7.89776 10.5002 8.27924 10.6582 8.5605 10.9395L10.5 12.879L15.4395 7.9395C15.5788 7.80023 15.7441 7.68976 15.9261 7.61439C16.108 7.53902 16.303 7.50023 16.5 7.50023C16.697 7.50023 16.892 7.53902 17.0739 7.61439C17.2559 7.68976 17.4212 7.80023 17.5605 7.9395C17.6998 8.07877 17.8102 8.2441 17.8856 8.42606C17.961 8.60802 17.9998 8.80305 17.9998 9C17.9998 9.19695 17.961 9.39198 17.8856 9.57394C17.8102 9.7559 17.6998 9.92123 17.5605 10.0605L11.5605 16.0605C11.4214 16.2 11.2561 16.3106 11.0741 16.3861C10.8921 16.4615 10.697 16.5002 10.5 16.5Z" fill="#27AE60"/>
</svg>
